Cloud native workflows with piggyback • piggyback
…
DBI::dbExecute(conn, query)
pbp <- dplyr::tbl(conn, "pbp")
tictoc::tic()
pbp |> 
  dplyr::filter(grepl("2021|2022|2023", filename), pass == 1 | rush == 1) |> 
  dplyr::summarise(
    n_plays = dplyr::n(),
    epa_per_play = mean(epa, na.rm = TRUE),
    .by = c(season, posteam, play_type)
  ) |> 
  dplyr::arrange(
    desc(season), posteam, desc(n_plays)
  ) |> 
  dplyr::collect()
#> # A tibble: 288 × 5
#>    season posteam play_type n_plays epa_per_play
#>     <int> <chr>   <chr>       <dbl>        <dbl>
#>  1   2023 ARI     pass          539      -0.231 
#>  2   2023 ARI     run           391       0.0351
#>  3   2023 ARI     no_play        48       0.191 
#>  4   2023 ATL     pass          499      -0.0738
#>  5   2023 ATL     run           465      -0.103 
#> # ℹ 283 more rows
#> # ℹ Use `print(n = ...)` to see more rows
…
library(duckdbfs)
pbp <- duckdbfs::open_dataset(pbp_urls, filename = TRUE)
tictoc::tic()
pbp |> 
  dplyr::filter(grepl("2021|2022|2023", filename), pass == 1 | rush == 1) |> 
  dplyr::summarise(
    n_plays = dplyr::n(),
    epa_per_play = mean(epa, na.rm = TRUE),
    .by = c(season, posteam, play_type)
  ) |> 
  dplyr::arrange(
    desc(season), posteam, desc(n_plays)
  ) |> 
  dplyr::collect()
#> # A tibble: 288 × 5
#>    season posteam play_type n_plays epa_per_play
#>     <int> <chr>   <chr>       <dbl>        <dbl>
#>  1   2023 ARI     pass          539      -0.231 
#>  2   2023 ARI     run           391       0.0351
#>  3   2023 ARI     no_play        48       0.191 
#>  4   2023 ATL     pass          499      -0.0738
#>  5   2023 ATL     run           465      -0.103 
#> # ℹ 283 more rows
#> # ℹ Use `print(n = ...)` to see more rows
…
