Piggyback Data atop your GitHub Repository! • piggyback
…
“.json” is read with jsonlite::fromJSON()

“.parquet” is read with arrow::read_parquet()

“.txt” is read with readLines()

If a file extension is not on this list, pb_read will raise an error and ask you to provide a read_function - you can also use this parameter to override the default read_function yourself:

pb_read(
  file = "play_by_play_2023.qs", 
  repo = "nflverse/nflverse-data",
  tag = "pbp",
  read_function = qs::qread
)
#> # A tibble: 42,251 × 372
#>   play_id game_id        old_game_id home_team away_team season_type  week posteam
#>     <dbl> <chr>          <chr>       <chr>     <chr>     <chr>       <int> <chr>  
#> 1       1 2023_01_ARI_W… 2023091007  WAS       ARI       REG             1 NA     
#> 2      39 2023_01_ARI_W… 2023091007  WAS       ARI       REG             1 WAS    
#> 3      55 2023_01_ARI_W… 2023091007  WAS       ARI       REG             1 WAS    
#> 4      77 2023_01_ARI_W… 2023091007  WAS       ARI       REG             1 WAS    
#> 5     102 2023_01_ARI_W… 2023091007  WAS       ARI       REG             1 WAS    
#> # ℹ 42,246 more rows
#> # ℹ 364 more variables: posteam_type <chr>, defteam <chr>, side_of_field <chr>,
#> #   yardline_100 <dbl>, game_date <chr>, quarter_seconds_remaining <dbl>,
#> #   half_seconds_remaining <dbl>, game_seconds_remaining <dbl>, game_half <chr>,
#> #   quarter_end <dbl>, drive <dbl>, sp <dbl>, qtr <dbl>, down <dbl>,
#> #   goal_to_go <dbl>, time <chr>, yrdln <chr>, ydstogo <dbl>, ydsnet <dbl>,
#> #   desc <chr>, play_type <chr>, yards_gained <dbl>, shotgun <dbl>, …

Any read_function can be provided so long as it accepts the filename as the first argument, and you can pass any additional parameters via ...:

pb_read(
  file = "play_by_play_2023.csv", 
  n_max = 10,
  repo = "nflverse/nflverse-data",
  tag = "pbp",
  read_function = readr::read_csv
)
#> # A tibble: 10 × 372
#>   play_id game_id        old_game_id home_team away_team season_type  week posteam
#>     <dbl> <chr>          <chr>       <chr>     <chr>     <chr>       <int> <chr>  
#> 1       1 2023_01_ARI_W… 2023091007  WAS       ARI       REG             1 NA     
#> 2      39 2023_01_ARI_W… 2023091007  WAS       ARI       REG             1 WAS    
#> 3      55 2023_01_ARI_W… 2023091007  WAS       ARI       REG             1 WAS    
#> 4      77 2023_01_ARI_W… 2023091007  WAS       ARI       REG             1 WAS    
#> 5     102 2023_01_ARI_W… 2023091007  WAS       ARI       REG             1 WAS    
#> # ℹ 5 more rows
#> # ℹ 364 more variables: posteam_type <chr>, defteam <chr>, side_of_field <chr>,
#> #   yardline_100 <dbl>, game_date <chr>, quarter_seconds_remaining <dbl>,
#> #   half_seconds_remaining <dbl>, game_seconds_remaining <dbl>, game_half <chr>,
#> #   quarter_end <dbl>, drive <dbl>, sp <dbl>, qtr <dbl>, down <dbl>,
#> #   goal_to_go <dbl>, time <chr>, yrdln <chr>, ydstogo <dbl>, ydsnet <dbl>,
#> #   desc <chr>, play_type <chr>, yards_gained <dbl>, shotgun <dbl>, …
…
Note that using url() requires that we close the connection after reading it, or else we will receive warnings about leaving open connections.

This url() approach allows us to pass along authentication for private repos, e.g.

pb_url <- pb_download_url("mtcars.rds", repo = "tanho63/piggyback-private", url_type = "api") %>%
  url(
    headers = c(
      "Accept" = "application/octet-stream",
      "Authorization" = paste("Bearer", gh::gh_token())
    )
  )
readRDS(pb_url)
#> # A tibble: 32 × 11
#>     mpg   cyl  disp    hp  drat    wt  qsec    vs    am  gear  carb
#>   <dbl> <dbl> <dbl> <dbl> <dbl> <dbl> <dbl> <dbl> <dbl> <dbl> <dbl>
#> 1  21       6   160   110  3.9   2.62  16.5     0     1     4     4
#> 2  21       6   160   110  3.9   2.88  17.0     0     1     4     4
#> 3  22.8     4   108    93  3.85  2.32  18.6     1     1     4     1
#> 4  21.4     6   258   110  3.08  3.22  19.4     1     0     3     1
#> 5  18.7     8   360   175  3.15  3.44  17.0     0     0     3     2
#> # ℹ 27 more rows
#> # ℹ Use `print(n = ...)` to see more rows
…
